…
<img src="man/figures/README-unnamed-chunk-8-2.png" alt="" width="100%" />

``` r

rate_meter_sim(cpm_equilibrium = 270, meter_scale_increments = seq(100, 1000, 20))
```

<img src="man/figures/README-unnamed-chunk-8-3.png" alt="" width="100%" />

### functions to help with radiation transport modeling

``` r
mcnp_sdef_erg_line("Co-60", photon = TRUE, cut = 0.01, erg.dist = 13)
#> # A tibble: 6 × 6
#>   RN    code_AN E_MeV     prob code_num is_photon
#>   <chr> <chr>   <dbl>    <dbl>    <dbl> <lgl>    
#> 1 Co-60 G       0.347 0.000075        1 TRUE     
#> 2 Co-60 G       0.826 0.000076        1 TRUE     
#> 3 Co-60 G       1.17  0.998           1 TRUE     
#> 4 Co-60 G       1.33  1.000           1 TRUE     
#> 5 Co-60 G       2.16  0.000012        1 TRUE     
#> # ℹ 1 more row
…
